…
Load Previous STM Objects

I have previously run stm models for topics ranging from 3 to 25. Based on the fit indices, a six-topic model was selected. I am not showing that analysis here, but instead loading the saved stm objects (the model and the ‘out’ object).

Tidy the stm model

I am using the tidytext package from Julia Silge, which she demonstrates in a blog post here.

td_beta <- tidy(modelfit6)
td_beta

## # A tibble: 1,416 x 3
##    topic term        beta
##    <int> <chr>      <dbl>
##  1     1 abil    9.13e-61
##  2     2 abil    6.07e-55
##  3     3 abil    1.51e- 2
##  4     4 abil    2.98e-54
##  5     5 abil    3.66e-63
##  6     6 abil    2.39e-58
##  7     1 account 1.57e-91
##  8     2 account 1.37e-25
##  9     3 account 4.28e-66
## 10     4 account 6.47e-63
## # ... with 1,406 more rows

td_gamma <- tidy(modelfit6, matrix = "gamma",
                 document_names = rownames(out$meta))

td_gamma

## # A tibble: 1,266 x 3
##    document topic   gamma
##    <chr>    <int>   <dbl>
##  1 1            1 0.00343
##  2 2            1 0.00462
##  3 3            1 0.0861 
##  4 4            1 0.0467 
##  5 5            1 0.0106 
##  6 6            1 0.00306
##  7 7            1 0.00419
##  8 8            1 0.0511 
##  9 9            1 0.00356
## 10 10           1 0.144  
## # ... with 1,256 more rows
…
