Week 10 Solutions | Ian T. Adams
…
Using desc() does not change that.

arrange(flights, desc(dep_time))

## # A tibble: 336,776 x 19
##     year month   day dep_time sched_dep_time dep_delay arr_time sched_arr_time
##    <int> <int> <int>    <int>          <int>     <dbl>    <int>          <int>
##  1  2013    10    30     2400           2359         1      327            337
##  2  2013    11    27     2400           2359         1      515            445
##  3  2013    12     5     2400           2359         1      427            440
##  4  2013    12     9     2400           2359         1      432            440
##  5  2013    12     9     2400           2250        70       59           2356
##  6  2013    12    13     2400           2359         1      432            440
##  7  2013    12    19     2400           2359         1      434            440
##  8  2013    12    29     2400           1700       420      302           2025
##  9  2013     2     7     2400           2359         1      432            436
## 10  2013     2     7     2400           2359         1      443            444
## # ... with 336,766 more rows, and 11 more variables: arr_delay <dbl>,
## #   carrier <chr>, flight <int>, tailnum <chr>, origin <chr>, dest <chr>,
## #   air_time <dbl>, distance <dbl>, hour <dbl>, minute <dbl>, time_hour <dttm>

To put NA values first, we can add an indicator of whether the column has a missing value.
Then we sort by the missing indicator column and the column of interest.
For example, to sort the data frame by departure time (dep_time) in ascending order but NA values first, run the following.

arrange(flights, desc(is.na(dep_time)), dep_time)

## # A tibble: 336,776 x 19
##     year month   day dep_time sched_dep_time dep_delay arr_time sched_arr_time
##    <int> <int> <int>    <int>          <int>     <dbl>    <int>          <int>
##  1  2013     1     1       NA           1630        NA       NA           1815
##  2  2013     1     1       NA           1935        NA       NA           2240
##  3  2013     1     1       NA           1500        NA       NA           1825
##  4  2013     1     1       NA            600        NA       NA            901
##  5  2013     1     2       NA           1540        NA       NA           1747
##  6  2013     1     2       NA           1620        NA       NA           1746
##  7  2013     1     2       NA           1355        NA       NA           1459
##  8  2013     1     2       NA           1420        NA       NA           1644
##  9  2013     1     2       NA           1321        NA       NA           1536
## 10  2013     1     2       NA           1545        NA       NA           1910
## # ... with 336,766 more rows, and 11 more variables: arr_delay <dbl>,
## #   carrier <chr>, flight <int>, tailnum <chr>, origin <chr>, dest <chr>,
## #   air_time <dbl>, distance <dbl>, hour <dbl>, minute <dbl>, time_hour <dttm>

The flights will first be sorted by desc(is.na(dep_time)).
Since desc(is.na(dep_time)) is either TRUE when dep_time is missing, or FALSE, when it is not, the rows with missing values of dep_time will come first, since TRUE > FALSE.

Exercise 5.4.1

Brainstorm as many ways as possible to select dep_time, dep_delay, arr_time, and arr_delay from flights.

These are a few ways to select columns.

Specify columns names as unquoted variable names.

select(flights, dep_time, dep_delay, arr_time, arr_delay)

## # A tibble: 336,776 x 4
##    dep_time dep_delay arr_time arr_delay
##       <int>     <dbl>    <int>     <dbl>
##  1      517         2      830        11
##  2      533         4      850        20
##  3      542         2      923        33
##  4      544        -1     1004       -18
##  5      554        -6      812       -25
##  6      554        -4      740        12
##  7      555        -5      913        19
##  8      557        -3      709       -14
##  9      557        -3      838        -8
## 10      558        -2      753         8
## # ... with 336,766 more rows

Specify column names as strings.

select(flights, "dep_time", "dep_delay", "arr_time", "arr_delay")

## # A tibble: 336,776 x 4
##    dep_time dep_delay arr_time arr_delay
##       <int>     <dbl>    <int>     <dbl>
##  1      517         2      830        11
##  2      533         4      850        20
##  3      542         2      923        33
##  4      544        -1     1004       -18
##  5      554        -6      812       -25
##  6      554        -4      740        12
##  7      555        -5      913        19
##  8      557        -3      709       -14
##  9      557        -3      838        -8
## 10      558        -2      753         8
## # ... with 336,766 more rows

Specify the column numbers of the variables.

select(flights, 4, 6, 7, 9)

## # A tibble: 336,776 x 4
##    dep_time dep_delay arr_time arr_delay
##       <int>     <dbl>    <int>     <dbl>
##  1      517         2      830        11
##  2      533         4      850        20
##  3      542         2      923        33
##  4      544        -1     1004       -18
##  5      554        -6      812       -25
##  6      554        -4      740        12
##  7      555        -5      913        19
##  8      557        -3      709       -14
##  9      557        -3      838        -8
## 10      558        -2      753         8
## # ... with 336,766 more rows

This works, but is not good practice for two reasons.
First, the column location of variables may change, resulting in code that
may continue to run without error, but produce the wrong answer.
Second code is obfuscated, since it is not clear from the code which
variables are being selected. What variable does column 6 correspond to?
I just wrote the code, and I’ve already forgotten.

Specify the names of the variables with character vector and any_of() or all_of()

select(flights, all_of(c("dep_time", "dep_delay", "arr_time", "arr_delay")))

## # A tibble: 336,776 x 4
##    dep_time dep_delay arr_time arr_delay
##       <int>     <dbl>    <int>     <dbl>
##  1      517         2      830        11
##  2      533         4      850        20
##  3      542         2      923        33
##  4      544        -1     1004       -18
##  5      554        -6      812       -25
##  6      554        -4      740        12
##  7      555        -5      913        19
##  8      557        -3      709       -14
##  9      557        -3      838        -8
## 10      558        -2      753         8
## # ... with 336,766 more rows

select(flights, any_of(c("dep_time", "dep_delay", "arr_time", "arr_delay")))

## # A tibble: 336,776 x 4
##    dep_time dep_delay arr_time arr_delay
##       <int>     <dbl>    <int>     <dbl>
##  1      517         2      830        11
##  2      533         4      850        20
##  3      542         2      923        33
##  4      544        -1     1004       -18
##  5      554        -6      812       -25
##  6      554        -4      740        12
##  7      555        -5      913        19
##  8      557        -3      709       -14
##  9      557        -3      838        -8
## 10      558        -2      753         8
## # ... with 336,766 more rows

This is useful because the names of the variables can be stored in a
variable and passed to all_of() or any_of().

variables <- c("dep_time", "dep_delay", "arr_time", "arr_delay")
select(flights, all_of(variables))

## # A tibble: 336,776 x 4
##    dep_time dep_delay arr_time arr_delay
##       <int>     <dbl>    <int>     <dbl>
##  1      517         2      830        11
##  2      533         4      850        20
##  3      542         2      923        33
##  4      544        -1     1004       -18
##  5      554        -6      812       -25
##  6      554        -4      740        12
##  7      555        -5      913        19
##  8      557        -3      709       -14
##  9      557        -3      838        -8
## 10      558        -2      753         8
## # ... with 336,766 more rows

These two functions replace the deprecated function one_of().

Selecting the variables by matching the start of their names using starts_with().

select(flights, starts_with("dep_"), starts_with("arr_"))

## # A tibble: 336,776 x 4
##    dep_time dep_delay arr_time arr_delay
##       <int>     <dbl>    <int>     <dbl>
##  1      517         2      830        11
##  2      533         4      850        20
##  3      542         2      923        33
##  4      544        -1     1004       -18
##  5      554        -6      812       -25
##  6      554        -4      740        12
##  7      555        -5      913        19
##  8      557        -3      709       -14
##  9      557        -3      838        -8
## 10      558        -2      753         8
## # ... with 336,766 more rows

Selecting the variables using regular expressions with matches().
Regular expressions provide a flexible way to match string patterns
and are discussed in the Strings chapter.

select(flights, matches("^(dep|arr)_(time|delay)$"))

## # A tibble: 336,776 x 4
##    dep_time dep_delay arr_time arr_delay
##       <int>     <dbl>    <int>     <dbl>
##  1      517         2      830        11
##  2      533         4      850        20
##  3      542         2      923        33
##  4      544        -1     1004       -18
##  5      554        -6      812       -25
##  6      554        -4      740        12
##  7      555        -5      913        19
##  8      557        -3      709       -14
##  9      557        -3      838        -8
## 10      558        -2      753         8
## # ... with 336,766 more rows

Specify the names of the variables with a character vector and use the bang-bang operator (!!).

variables <- c("dep_time", "dep_delay", "arr_time", "arr_delay")
select(flights, !!variables)

## # A tibble: 336,776 x 4
##    dep_time dep_delay arr_time arr_delay
##       <int>     <dbl>    <int>     <dbl>
##  1      517         2      830        11
##  2      533         4      850        20
##  3      542         2      923        33
##  4      544        -1     1004       -18
##  5      554        -6      812       -25
##  6      554        -4      740        12
##  7      555        -5      913        19
##  8      557        -3      709       -14
##  9      557        -3      838        -8
## 10      558        -2      753         8
## # ... with 336,766 more rows

This and the following answers use the features of tidy evaluation not covered in R4DS but covered in the Programming with dplyr vignette.

Specify the names of the variables in a character or list vector and use the bang-bang-bang operator.

variables <- c("dep_time", "dep_delay", "arr_time", "arr_delay")
select(flights, !!!variables)

## # A tibble: 336,776 x 4
##    dep_time dep_delay arr_time arr_delay
##       <int>     <dbl>    <int>     <dbl>
##  1      517         2      830        11
##  2      533         4      850        20
##  3      542         2      923        33
##  4      544        -1     1004       -18
##  5      554        -6      812       -25
##  6      554        -4      740        12
##  7      555        -5      913        19
##  8      557        -3      709       -14
##  9      557        -3      838        -8
## 10      558        -2      753         8
## # ... with 336,766 more rows

Specify the unquoted names of the variables in a list using syms() and use the bang-bang-bang operator.

variables <- syms(c("dep_time", "dep_delay", "arr_time", "arr_delay"))
select(flights, !!!variables)

## # A tibble: 336,776 x 4
##    dep_time dep_delay arr_time arr_delay
##       <int>     <dbl>    <int>     <dbl>
##  1      517         2      830        11
##  2      533         4      850        20
##  3      542         2      923        33
##  4      544        -1     1004       -18
##  5      554        -6      812       -25
##  6      554        -4      740        12
##  7      555        -5      913        19
##  8      557        -3      709       -14
##  9      557        -3      838        -8
## 10      558        -2      753         8
## # ... with 336,766 more rows

Some things that don’t work are:

Matching the ends of their names using ends_with() since this will incorrectly
include other variables. For example,

select(flights, ends_with("arr_time"), ends_with("dep_time"))

## # A tibble: 336,776 x 4
##    arr_time sched_arr_time dep_time sched_dep_time
##       <int>          <int>    <int>          <int>
##  1      830            819      517            515
##  2      850            830      533            529
##  3      923            850      542            540
##  4     1004           1022      544            545
##  5      812            837      554            600
##  6      740            728      554            558
##  7      913            854      555            600
##  8      709            723      557            600
##  9      838            846      557            600
## 10      753            745      558            600
## # ... with 336,766 more rows

Matching the names using contains() since there is not a pattern that can
include all these variables without incorrectly including others.

select(flights, contains("_time"), contains("arr_"))

## # A tibble: 336,776 x 6
##    dep_time sched_dep_time arr_time sched_arr_time air_time arr_delay
##       <int>          <int>    <int>          <int>    <dbl>     <dbl>
##  1      517            515      830            819      227        11
##  2      533            529      850            830      227        20
##  3      542            540      923            850      160        33
##  4      544            545     1004           1022      183       -18
##  5      554            600      812            837      116       -25
##  6      554            558      740            728      150        12
##  7      555            600      913            854      158        19
##  8      557            600      709            723       53       -14
##  9      557            600      838            846      140        -8
## 10      558            600      753            745      138         8
## # ... with 336,766 more rows
…
5.6.7.2

Come up with another approach that will give you the same output as not_cancelled %>% count(dest) and not_cancelled %>% count(tailnum, wt = distance) (without using count()).

not_cancelled <- flights %>%
  filter(!is.na(dep_delay), !is.na(arr_delay))

The first expression is the following.

not_cancelled %>% 
  count(dest)

## # A tibble: 104 x 2
##    dest      n
##    <chr> <int>
##  1 ABQ     254
##  2 ACK     264
##  3 ALB     418
##  4 ANC       8
##  5 ATL   16837
##  6 AUS    2411
##  7 AVL     261
##  8 BDL     412
##  9 BGR     358
## 10 BHM     269
## # ... with 94 more rows

The count() function counts the number of instances within each group of variables.
Instead of using the count() function, we can combine the group_by() and summarise() verbs.

not_cancelled %>%
  group_by(dest) %>%
  summarise(n = length(dest))

## # A tibble: 104 x 2
##    dest      n
##    <chr> <int>
##  1 ABQ     254
##  2 ACK     264
##  3 ALB     418
##  4 ANC       8
##  5 ATL   16837
##  6 AUS    2411
##  7 AVL     261
##  8 BDL     412
##  9 BGR     358
## 10 BHM     269
## # ... with 94 more rows

An alternative method for getting the number of observations in a data frame is the function n().

not_cancelled %>%
  group_by(dest) %>%
  summarise(n = n())

## # A tibble: 104 x 2
##    dest      n
##    <chr> <int>
##  1 ABQ     254
##  2 ACK     264
##  3 ALB     418
##  4 ANC       8
##  5 ATL   16837
##  6 AUS    2411
##  7 AVL     261
##  8 BDL     412
##  9 BGR     358
## 10 BHM     269
## # ... with 94 more rows

Another alternative to count() is to use group_by() followed by tally().
In fact, count() is effectively a short-cut for group_by() followed by tally().

not_cancelled %>%
  group_by(tailnum) %>%
  tally()

## # A tibble: 4,037 x 2
##    tailnum     n
##    <chr>   <int>
##  1 D942DN      4
##  2 N0EGMQ    352
##  3 N10156    145
##  4 N102UW     48
##  5 N103US     46
##  6 N104UW     46
##  7 N10575    269
##  8 N105UW     45
##  9 N107US     41
## 10 N108UW     60
## # ... with 4,027 more rows

The second expression also uses the count() function, but adds a wt argument.

not_cancelled %>% 
  count(tailnum, wt = distance)

## # A tibble: 4,037 x 2
##    tailnum      n
##    <chr>    <dbl>
##  1 D942DN    3418
##  2 N0EGMQ  239143
##  3 N10156  109664
##  4 N102UW   25722
##  5 N103US   24619
##  6 N104UW   24616
##  7 N10575  139903
##  8 N105UW   23618
##  9 N107US   21677
## 10 N108UW   32070
## # ... with 4,027 more rows

As before, we can replicate count() by combining the group_by() and summarise() verbs.
But this time instead of using length(), we will use sum() with the weighting variable.

not_cancelled %>%
  group_by(tailnum) %>%
  summarise(n = sum(distance))

## # A tibble: 4,037 x 2
##    tailnum      n
##    <chr>    <dbl>
##  1 D942DN    3418
##  2 N0EGMQ  239143
##  3 N10156  109664
##  4 N102UW   25722
##  5 N103US   24619
##  6 N104UW   24616
##  7 N10575  139903
##  8 N105UW   23618
##  9 N107US   21677
## 10 N108UW   32070
## # ... with 4,027 more rows

Like the previous example, we can also use the combination group_by() and tally().
Any arguments to tally() are summed.

not_cancelled %>%
  group_by(tailnum) %>%
  tally(distance)

## # A tibble: 4,037 x 2
##    tailnum      n
##    <chr>    <dbl>
##  1 D942DN    3418
##  2 N0EGMQ  239143
##  3 N10156  109664
##  4 N102UW   25722
##  5 N103US   24619
##  6 N104UW   24616
##  7 N10575  139903
##  8 N105UW   23618
##  9 N107US   21677
## 10 N108UW   32070
## # ... with 4,027 more rows

5.6.7.3

Our definition of cancelled flights (is.na(dep_delay) | is.na(arr_delay)) is slightly suboptimal.
Why?
Which is the most important column?

If a flight never departs, then it won’t arrive.
A flight could also depart and not arrive if it crashes, or if it is redirected and lands in an airport other than its intended destination.
So the most important column is arr_delay, which indicates the amount of delay in arrival.

filter(flights, !is.na(dep_delay), is.na(arr_delay)) %>%
  select(dep_time, arr_time, sched_arr_time, dep_delay, arr_delay)

## # A tibble: 1,175 x 5
##    dep_time arr_time sched_arr_time dep_delay arr_delay
##       <int>    <int>          <int>     <dbl>     <dbl>
##  1     1525     1934           1805        -5        NA
##  2     1528     2002           1647        29        NA
##  3     1740     2158           2020        -5        NA
##  4     1807     2251           2103        29        NA
##  5     1939       29           2151        59        NA
##  6     1952     2358           2207        22        NA
##  7     2016       NA           2220        46        NA
##  8      905     1313           1045        43        NA
##  9     1125     1445           1146       120        NA
## 10     1848     2333           2151         8        NA
## # ... with 1,165 more rows
…
5.6.7.6

What does the sort argument to count() do?
When might you use it?

The sort argument to count() sorts the results in order of n.
You could use this anytime you would run count() followed by arrange().

For example, the following expression counts the number of flights to a destination and sorts the returned data from highest to lowest.

flights %>%
  count(dest, sort = TRUE)

## # A tibble: 105 x 2
##    dest      n
##    <chr> <int>
##  1 ORD   17283
##  2 ATL   17215
##  3 LAX   16174
##  4 BOS   15508
##  5 MCO   14082
##  6 CLT   14064
##  7 SFO   13331
##  8 FLL   12055
##  9 MIA   11728
## 10 DCA    9705
## # ... with 95 more rows
…
