…
Some researchers prefer a frequentist approach, and one of the advantages of this approach is that we can derive Fisher’s Exact P-values based on work from Abadie et al., (2010). Interpretation is straightforward:

If the intervention had no effect, then the post-period and pre-period should continue to map onto one another fairly well, yielding a ratio close to 1. If the placebo units fit the data similarly, then we can’t reject the hull hypothesis that there is no effect brought about by the intervention.

This ratio can be easily plotted using plot_mspe_ratio(), offering insight into the rarity of the case where the intervention actually occurred.

smoking_out %>% plot_mspe_ratio()

<img src="{{< blogdown/postref >}}index_files/figure-html/remedy009-1.png" width="672" />

For those who want to publish their results, reviewers and readers are going to want a table of results. The tidysynth package has you covered.

smoking_out %>% grab_signficance()

## # A tibble: 39 x 8
##    unit_name  type  pre_mspe post_mspe mspe_ratio  rank fishers_exact_p~ z_score
##    <chr>      <chr>    <dbl>     <dbl>      <dbl> <int>            <dbl>   <dbl>
##  1 California Trea~     3.94     390.       99.0      1           0.0256  5.13  
##  2 Georgia    Donor     3.48     174.       49.8      2           0.0513  2.33  
##  3 Virginia   Donor     5.86     171.       29.2      3           0.0769  1.16  
##  4 Indiana    Donor    18.4      415.       22.6      4           0.103   0.787 
##  5 West Virg~ Donor    14.3      287.       20.1      5           0.128   0.646 
##  6 Connectic~ Donor    27.3      335.       12.3      6           0.154   0.202 
##  7 Nebraska   Donor     6.47      54.3       8.40     7           0.179  -0.0189
##  8 Missouri   Donor     9.19      77.0       8.38     8           0.205  -0.0199
##  9 Texas      Donor    24.5      160.        6.54     9           0.231  -0.125 
## 10 Idaho      Donor    53.2      340.        6.39    10           0.256  -0.133 
## # ... with 29 more rows
…
